<?xml version="1.0" encoding="UTF-8"?>
<!DOCTYPE svg PUBLIC "-//W3C//DTD SVG 1.1//EN" "http://www.w3.org/Graphics/SVG/1.1/DTD/svg11.dtd">
<!-- Creator: CorelDRAW X8 -->
<svg xmlns="http://www.w3.org/2000/svg" xml:space="preserve" width="565.445mm" height="136.919mm" version="1.1" style="shape-rendering:geometricPrecision; text-rendering:geometricPrecision; image-rendering:optimizeQuality; fill-rule:evenodd; clip-rule:evenodd"
viewBox="0 0 56545 13692"
 xmlns:xlink="http://www.w3.org/1999/xlink">
 <defs>
  <style type="text/css">
   <![CDATA[
    .str0 {stroke:#000002;stroke-width:282.22}
    .fil1 {fill:#0171A1}
    .fil6 {fill:#2B2A29}
    .fil4 {fill:#7F1958}
    .fil2 {fill:#83BC37}
    .fil0 {fill:#F0D500}
    .fil5 {fill:#FEFEFE}
    .fil3 {fill:#000002;fill-rule:nonzero}
   ]]>
  </style>
 </defs>
 <g id="Layer_x0020_1">
  <metadata id="CorelCorpID_0Corel-Layer"/>
  <polygon class="fil0" points="7896,6861 15801,6861 11849,15 3944,15 4932,1727 5426,2582 5920,3438 6908,5150 7402,6005 "/>
  <polygon class="fil1" points="7896,6861 15801,6861 11849,13707 3944,13707 4932,11996 5426,11140 5920,10284 6908,8573 7402,7717 "/>
  <polygon class="fil2" points="7896,6861 3944,13707 -9,6861 3944,15 4932,1727 5426,2583 5920,3438 6908,5150 7402,6005 "/>
  <path class="fil3" d="M18298 6581c0,-578 152,-1056 455,-1431 304,-374 719,-562 1248,-562 527,0 943,187 1246,561 306,373 459,851 459,1432l0 560c0,584 -152,1062 -456,1432 -304,372 -718,557 -1244,557 -532,0 -949,-185 -1253,-557 -303,-370 -455,-848 -455,-1432l0 -560zm821 556c0,400 73,729 219,986 145,257 368,385 668,385 291,0 511,-128 657,-385 148,-257 221,-586 221,-986l0 -560c0,-395 -73,-722 -221,-980 -146,-259 -367,-387 -662,-387 -297,0 -518,128 -663,385 -146,257 -219,585 -219,982l0 560zm3206 -556c0,-578 152,-1056 454,-1431 304,-374 720,-562 1249,-562 526,0 942,187 1246,561 305,373 459,851 459,1432l0 560c0,584 -152,1062 -456,1432 -304,372 -719,557 -1245,557 -532,0 -949,-185 -1253,-557 -302,-370 -454,-848 -454,-1432l0 -560zm820 556c0,400 74,729 220,986 145,257 367,385 667,385 292,0 511,-128 658,-385 147,-257 221,-586 221,-986l0 -560c0,-395 -74,-722 -221,-980 -147,-259 -368,-387 -662,-387 -297,0 -518,128 -663,385 -146,257 -220,585 -220,982l0 560zm4597 399l61 287 25 0 841 -3152 895 0 -1533 5054c-103,301 -242,558 -417,770 -175,211 -428,317 -757,317 -68,0 -140,-6 -217,-22 -77,-15 -153,-31 -228,-51l89 -606c30,5 70,11 121,16 51,6 91,9 122,9 159,0 284,-68 378,-205 93,-135 165,-297 217,-483l145 -445 -1351 -4354 890 0 719 2865 0 0zm3901 972c206,0 379,-78 518,-237 141,-158 212,-369 212,-633l736 0 8 24c11,413 -128,761 -418,1044 -290,283 -643,424 -1056,424 -544,0 -961,-185 -1251,-554 -290,-370 -435,-840 -435,-1412l0 -602c0,-572 145,-1044 435,-1416 290,-371 706,-558 1249,-558 442,0 801,148 1077,444 276,294 412,676 403,1146l-12 24 -736 0c0,-295 -68,-534 -201,-717 -134,-184 -310,-275 -531,-275 -314,0 -536,127 -666,381 -132,254 -196,576 -196,966l0 605c0,395 64,718 196,969 130,252 353,377 668,377zm5124 -3215l-1215 0 0 3754 -824 0 0 -3754 -1191 0 0 -622 3230 0 0 622zm3873 1928c0,577 -127,1039 -381,1387 -253,348 -605,522 -1056,522 -214,0 -400,-41 -563,-126 -162,-83 -300,-205 -416,-367l0 2093 -822 0 0 -6059 732 0 53 500c116,-186 258,-330 425,-431 167,-101 362,-152 583,-152 456,0 811,192 1064,575 254,382 381,889 381,1521l0 537 0 0zm-822 -537c0,-430 -71,-779 -213,-1051 -141,-271 -352,-407 -632,-407 -176,0 -326,50 -451,150 -123,100 -224,236 -298,408l0 2215c72,164 171,290 294,378 124,87 278,131 457,131 285,0 495,-117 634,-353 140,-236 209,-547 209,-934l0 -537zm1449 -103c0,-578 152,-1056 454,-1431 304,-374 720,-562 1249,-562 526,0 942,187 1246,561 305,373 459,851 459,1432l0 560c0,584 -152,1062 -456,1432 -304,372 -718,557 -1245,557 -532,0 -949,-185 -1253,-557 -302,-370 -454,-848 -454,-1432l0 -560zm820 556c0,400 74,729 220,986 145,257 368,385 667,385 292,0 511,-128 658,-385 148,-257 221,-586 221,-986l0 -560c0,-395 -73,-722 -221,-980 -147,-259 -368,-387 -662,-387 -297,0 -518,128 -663,385 -146,257 -220,585 -220,982l0 560zm4950 1993c-521,0 -937,-181 -1250,-541 -313,-362 -470,-825 -470,-1389l0 -638c0,-572 153,-1044 460,-1416 305,-371 695,-558 1167,-558 496,0 879,169 1145,507 267,339 401,793 401,1364l0 566 -2355 0 0 174c0,378 83,691 248,938 166,247 402,371 706,371 228,0 422,-35 583,-107 163,-72 316,-176 462,-314l259 510c-138,156 -323,284 -555,384 -232,99 -499,149 -801,149l0 0zm-93 -3920c-237,0 -428,116 -570,347 -144,232 -223,524 -239,879l1541 0 0 -167c0,-311 -62,-565 -186,-762 -123,-198 -305,-297 -546,-297l0 0zm5387 3837l-822 0 0 -1873 -1457 0 0 1873 -820 0 0 -4376 820 0 0 1881 1457 0 0 -1881 822 0 0 4376zm797 -2466c0,-578 152,-1056 455,-1431 304,-374 719,-562 1249,-562 526,0 942,187 1245,561 306,373 459,851 459,1432l0 560c0,584 -152,1062 -456,1432 -304,372 -718,557 -1244,557 -532,0 -949,-185 -1253,-557 -303,-370 -455,-848 -455,-1432l0 -560zm821 556c0,400 73,729 220,986 145,257 367,385 667,385 291,0 511,-128 657,-385 148,-257 221,-586 221,-986l0 -560c0,-395 -73,-722 -221,-980 -146,-259 -367,-387 -661,-387 -297,0 -518,128 -663,385 -147,257 -220,585 -220,982l0 560z"/>
  <polygon class="fil4" points="25182,3175 24046,2030 22423,4895 "/>
  <polygon class="fil5" points="7896,6861 14136,6861 11016,12265 4776,12265 5556,10914 5946,10239 6336,9563 7116,8212 7506,7537 7554,7454 4776,12265 1656,6861 4776,1457 5556,2808 5946,3484 6336,4159 7116,5510 7506,6186 7669,6468 7506,6186 7116,5510 6336,4159 5946,3484 5556,2808 4776,1457 11016,1457 14136,6861 "/>
  <path class="fil6 str0" d="M5750 6003c440,0 796,357 796,797 0,439 -356,796 -796,796 -440,0 -796,-357 -796,-796 0,-440 356,-797 796,-797zm1812 399c-37,-65 -73,-218 -114,-310 -330,-743 -1167,-1191 -1919,-1072 -989,157 -1622,949 -1622,1841 -1,850 650,1745 1632,1842 415,41 820,-22 1200,-261 210,-133 407,-314 550,-525 211,-311 207,-479 273,-596 133,13 316,2 459,2 956,0 745,-85 1353,523 223,-223 383,-461 657,-460 275,1 431,235 655,460 128,-127 280,-297 413,-409 144,-122 287,-114 409,-114 73,0 131,1 205,0 84,0 128,26 205,-50 136,-132 277,-275 408,-412 -100,-104 -204,-205 -306,-307 -168,-168 -117,-162 -297,-161l-2974 6c-322,-1 -893,-10 -1187,3l0 0zm4544 1338c-47,10 -88,35 -137,42 -94,15 -289,9 -390,9 -193,0 -158,-25 -256,75 -85,86 -171,171 -256,257 -447,448 -755,5 -1036,-276 -163,157 -348,398 -544,450 -361,94 -573,-298 -801,-482 -60,-49 -195,-25 -265,-25 -153,0 -395,-15 -534,4 -92,140 -143,289 -262,450 -722,979 -2087,1219 -3081,593 -914,-576 -1278,-1644 -1018,-2591 221,-801 864,-1423 1664,-1634 970,-255 2048,169 2566,1070 44,76 87,182 130,247l3355 4c218,0 464,-13 677,3 273,20 824,631 866,864 59,323 -460,722 -678,940l0 0z"/>
  <polygon class="fil0" points="7896,6861 15801,6861 11849,15 3944,15 4932,1727 5426,2582 5920,3438 6908,5150 7402,6005 "/>
  <polygon class="fil1" points="7896,6861 15801,6861 11849,13707 3944,13707 4932,11996 5426,11140 5920,10284 6908,8573 7402,7717 "/>
  <polygon class="fil2" points="7896,6861 3944,13707 -9,6861 3944,15 4932,1727 5426,2583 5920,3438 6908,5150 7402,6005 "/>
  <polygon class="fil4" points="25182,3175 24046,2030 22423,4895 "/>
  <polygon class="fil5" points="7896,6861 14136,6861 11016,12265 4776,12265 5556,10914 5946,10239 6336,9563 7116,8212 7506,7537 7554,7454 4776,12265 1656,6861 4776,1457 5556,2808 5946,3484 6336,4159 7116,5510 7506,6186 7669,6468 7506,6186 7116,5510 6336,4159 5946,3484 5556,2808 4776,1457 11016,1457 14136,6861 "/>
  <path class="fil6 str0" d="M5750 6003c440,0 796,357 796,797 0,439 -356,796 -796,796 -440,0 -796,-357 -796,-796 0,-440 356,-797 796,-797zm1812 399c-37,-65 -73,-218 -114,-310 -330,-743 -1167,-1191 -1919,-1072 -989,157 -1622,949 -1622,1841 -1,850 650,1745 1632,1842 415,41 820,-22 1200,-261 210,-133 407,-314 550,-525 211,-311 207,-479 273,-596 133,13 316,2 459,2 956,0 745,-85 1353,523 223,-223 383,-461 657,-460 275,1 431,235 655,460 128,-127 280,-297 413,-409 144,-122 287,-114 409,-114 73,0 131,1 205,0 84,0 128,26 205,-50 136,-132 277,-275 408,-412 -100,-104 -204,-205 -306,-307 -168,-168 -117,-162 -297,-161l-2974 6c-322,-1 -893,-10 -1187,3l0 0zm4544 1338c-47,10 -88,35 -137,42 -94,15 -289,9 -390,9 -193,0 -158,-25 -256,75 -85,86 -171,171 -256,257 -447,448 -755,5 -1036,-276 -163,157 -348,398 -544,450 -361,94 -573,-298 -801,-482 -60,-49 -195,-25 -265,-25 -153,0 -395,-15 -534,4 -92,140 -143,289 -262,450 -722,979 -2087,1219 -3081,593 -914,-576 -1278,-1644 -1018,-2591 221,-801 864,-1423 1664,-1634 970,-255 2048,169 2566,1070 44,76 87,182 130,247l3355 4c218,0 464,-13 677,3 273,20 824,631 866,864 59,323 -460,722 -678,940l0 0z"/>
 </g>
</svg>
